<?xml version="1.0" encoding="utf-8"?>
<!-- Generator: Adobe Illustrator 26.0.1, SVG Export Plug-In . SVG Version: 6.00 Build 0)  -->
<svg version="1.1" id="Layer_1" xmlns="http://www.w3.org/2000/svg" xmlns:xlink="http://www.w3.org/1999/xlink" x="0px" y="0px"
	 viewBox="0 0 147.4 25.5" style="enable-background:new 0 0 147.4 25.5;" xml:space="preserve">
<style type="text/css">
	.st0{fill:#005D83;}
</style>
<g>
	<polygon class="st0" points="101.4,0.1 95.9,0.1 88.9,12.5 81.8,0.1 76.3,0.1 86.6,18.1 86.6,25.6 91.2,25.6 91.2,17.9 	"/>
	<g>
		<path class="st0" d="M142.8,0.1v6.4v9.2c0,2.1-1.1,4-3,4.9c-4.5,2.2-8.8-1-8.8-5.2V6.5V0.2h-4.6l0,0v15c0,7.1,7.2,12.6,14.7,9.6
			c3.8-1.5,6.3-5.3,6.3-9.4V0.1H142.8z"/>
		<path class="st0" d="M42.8,21c-4.5,0-8.2-3.7-8.2-8.2s3.7-8.5,8.2-8.5c2,0,3.9,0.8,5.4,2.1l2.3-3.8C48.4,1,45.7,0,42.8,0
			C35.7,0,30,5.7,30,12.8s5.7,12.8,12.8,12.8c3.2,0,6.2-1.2,8.4-3.2l-2.5-3.9C47.3,20.1,45.2,21,42.8,21"/>
		<path class="st0" d="M64.7,21c-4.5,0-8.2-3.7-8.2-8.2s3.7-8.5,8.2-8.5s8.2,3.9,8.2,8.5C72.9,17.4,69.3,21,64.7,21 M64.7,0.1
			c-7.1,0-12.8,5.7-12.8,12.8c0,7,5.7,12.8,12.8,12.8c7,0,12.8-5.7,12.8-12.8S71.8,0.1,64.7,0.1"/>
		<path class="st0" d="M115.1,11.9h-6V4.3h6c2.1,0,3.8,1.7,3.8,3.8S117.2,11.9,115.1,11.9 M123.2,8.1c0-4.5-3.6-8.1-8.1-8.1l0,0
			h-10.6v25.6h4.6v-9.4h6.2C119.7,16.1,123.2,12.5,123.2,8.1"/>
		<path class="st0" d="M15.3,17.5L12,18.3V4.1L16.9,5L15.3,17.5z M9.7,18.4l-3.3-0.8L4.8,5.1l4.9-0.9C9.7,4.2,9.7,18.4,9.7,18.4z
			 M10.9,0C5,0,0,2.3,0,2.3l2.9,18.5l8,4.7c0,0,2.6-1.5,4.4-2.6s3.6-2.1,3.6-2.1l2.9-18.4C21.8,2.4,16.8,0,10.9,0"/>
	</g>
</g>
</svg>
